{
	"Guest" : {
		"Denied": {},
		"Home" : ["*"],
		"Register" : ["signup", "login"],
		"Restricted" : ["*"],
		"ContactUs" : ["*"]
	},
	"LoggedIn" : {
		"Denied" : {
			"Register" : ["signup" , "login"]
		},
		"Register" : ["logout"],
		"ContactUs" : ["*"]
	}
}